{
  "preserve-whitespace": true,
	"@boxes <dodontbox>[]": {
		"@type": "string",
		"@text": "string"
	},
	"@specs <spec>[]": {
		"@height": "boolean",
		"@width": "boolean",
		"@spacing": "boolean",
		"@highlight": "boolean",
		"@number": "string",
		"@name": "string",
		"@reference": "expression"
	},
	"@name": "string",
	"@reference": "array",
	"@release": "string",
	"@overview": "expression",
	"@approved": "string",
	"@visuallayout": "string",
	"@visual": "boolean",
	"@mobile": "boolean",
	"@tablet": "boolean",
	"@codetype": "string",
	"@specs": "string",
	"@specheight": "boolean",
	"@specwidth": "boolean",
	"@specspacing": "boolean",
	"@codeblocks <code>[]": {
		"@codetype": "string",
		"@name": "string",
		"preserve-whitespace": true
	},
	"@mobilecodeblocks <mobilecode>[]": {
		"@codetype": "string",
		"@name": "string",
		"preserve-whitespace": true
	},
	"@tabletcodeblocks <tabletcode>[]": {
		"@codetype": "string",
		"@name": "string",
		"preserve-whitespace": true
	},
	"@standardcopy": "expression",
	"@ada": "expression"
}
